{"mc":{
	"Logo":{
		"frameRate":24,
		"events":[
			
			],
		"frames":[
			
			{
			"res":"465A91E7",
			"x":0,
			"y":5
			},
			{
			"res":"4CC11FD9",
			"x":0,
			"y":42
			},
			{
			"res":"30811C6",
			"x":0,
			"y":37
			},
			{
			"res":"A3557A28",
			"x":1,
			"y":34
			},
			{
			"res":"9E12DCAD",
			"x":0,
			"y":32
			},
			{
			"res":"B680206F",
			"x":0,
			"y":32
			},
			{
			"res":"74D10742",
			"x":0,
			"y":32
			},
			{
			"res":"5D72F352",
			"x":0,
			"y":32
			},
			{
			"res":"9B0B8F65",
			"x":11,
			"y":32
			},
			{
			"res":"F3E5FB20",
			"x":26,
			"y":32
			},
			{
			"res":"2EBFA0FC",
			"x":35,
			"y":32
			},
			{
			"res":"D6979E9F",
			"x":49,
			"y":35
			},
			{
			"res":"65B96209",
			"x":77,
			"y":35
			},
			{
			"res":"28C02302",
			"x":77,
			"y":27
			},
			{
			"res":"99EFA8BA",
			"x":77,
			"y":21
			},
			{
			"res":"B9584286",
			"x":81,
			"y":7
			},
			{
			"res":"1CD3D45E",
			"x":92,
			"y":7
			},
			{
			"res":"CECF6BFD",
			"x":99,
			"y":7
			},
			{
			"res":"3300CE40",
			"x":104,
			"y":7
			},
			{
			"res":"71151990",
			"x":104,
			"y":5
			},
			{
			"res":"D91DAE8F",
			"x":123,
			"y":5
			},
			{
			"res":"25C20C13",
			"x":153,
			"y":5
			},
			{
			"res":"24318CB5",
			"x":153,
			"y":5
			},
			{
			"res":"163EEF24",
			"x":153,
			"y":5
			},
			{
			"res":"F8D7F507",
			"x":157,
			"y":5
			},
			{
			"res":"BE74291E",
			"x":164,
			"y":5
			},
			{
			"res":"193057D7",
			"x":176,
			"y":5
			},
			{
			"res":"84573207",
			"x":179,
			"y":5
			},
			{
			"res":"B53D3F8D",
			"x":188,
			"y":5
			},
			{
			"res":"CEAC99BE",
			"x":193,
			"y":7
			},
			{
			"res":"5F614D04",
			"x":205,
			"y":9
			},
			{
			"res":"35730F7A",
			"x":229,
			"y":9
			},
			{
			"res":"D86E0A5E",
			"x":229,
			"y":9
			},
			{
			"res":"88AA6CF0",
			"x":229,
			"y":9
			},
			{
			"res":"E802FDAF",
			"x":237,
			"y":9
			},
			{
			"res":"5B29B6F4",
			"x":241,
			"y":9
			},
			{
			"res":"C7D09BB",
			"x":252,
			"y":9
			},
			{
			"res":"591826B",
			"x":258,
			"y":9
			},
			{
			"res":"31CFE343",
			"x":269,
			"y":9
			},
			{
			"res":"A03067DD",
			"x":272,
			"y":9
			},
			{
			"res":"F5326D81",
			"x":284,
			"y":21
			},
			{
			"res":"8A64F2E",
			"x":290,
			"y":21
			},
			{
			"res":"EC8AA509",
			"x":311,
			"y":21
			},
			{
			"res":"643121BC",
			"x":311,
			"y":21
			},
			{
			"res":"EDD74AE8",
			"x":313,
			"y":21
			},
			{
			"res":"B7D31E41",
			"x":322,
			"y":21
			},
			{
			"res":"6A487B89",
			"x":326,
			"y":21
			},
			{
			"res":"230A13A1",
			"x":338,
			"y":21
			},
			{
			"res":"9554EB68",
			"x":343,
			"y":21
			},
			{
			"res":"EEFED8C0",
			"x":338,
			"y":23
			}
			]
}},
	"res":{
		"84573207":{"x":839,"y":136,"w":90,"h":66},
		"71151990":{"x":558,"y":0,"w":109,"h":66},
		"6A487B89":{"x":558,"y":68,"w":94,"h":75},
		"E802FDAF":{"x":923,"y":328,"w":94,"h":56},
		"2EBFA0FC":{"x":0,"y":93,"w":95,"h":50},
		"193057D7":{"x":735,"y":200,"w":87,"h":66},
		"74D10742":{"x":358,"y":93,"w":79,"h":56},
		"CECF6BFD":{"x":184,"y":325,"w":92,"h":54},
		"30811C6":{"x":142,"y":208,"w":29,"h":50},
		"1CD3D45E":{"x":464,"y":209,"w":91,"h":54},
		"F3E5FB20":{"x":735,"y":268,"w":100,"h":55},
		"B53D3F8D":{"x":861,"y":68,"w":90,"h":66},
		"B680206F":{"x":0,"y":202,"w":57,"h":56},
		"C7D09BB":{"x":643,"y":145,"w":90,"h":64},
		"4CC11FD9":{"x":747,"y":77,"w":14,"h":46},
		"BE74291E":{"x":654,"y":77,"w":91,"h":66},
		"591826B":{"x":765,"y":66,"w":94,"h":64},
		"9E12DCAD":{"x":148,"y":150,"w":54,"h":56},
		"B7D31E41":{"x":931,"y":202,"w":90,"h":64},
		"F8D7F507":{"x":864,"y":0,"w":93,"h":66},
		"25C20C13":{"x":953,"y":68,"w":60,"h":66},
		"28C02302":{"x":59,"y":243,"w":80,"h":27},
		"EC8AA509":{"x":0,"y":145,"w":75,"h":55},
		"9B0B8F65":{"x":0,"y":386,"w":95,"h":55},
		"465A91E7":{"x":0,"y":0,"w":448,"h":91},
		"163EEF24":{"x":837,"y":270,"w":84,"h":64},
		"D91DAE8F":{"x":747,"y":132,"w":90,"h":66},
		"5D72F352":{"x":0,"y":325,"w":91,"h":55},
		"D6979E9F":{"x":59,"y":206,"w":81,"h":35},
		"5F614D04":{"x":93,"y":325,"w":89,"h":56},
		"643121BC":{"x":186,"y":93,"w":82,"h":55},
		"D86E0A5E":{"x":464,"y":154,"w":69,"h":53},
		"A3557A28":{"x":0,"y":260,"w":39,"h":53},
		"CEAC99BE":{"x":925,"y":268,"w":93,"h":58},
		"88AA6CF0":{"x":97,"y":93,"w":87,"h":53},
		"5B29B6F4":{"x":546,"y":145,"w":95,"h":62},
		"99EFA8BA":{"x":204,"y":201,"w":89,"h":33},
		"230A13A1":{"x":669,"y":0,"w":94,"h":75},
		"35730F7A":{"x":77,"y":148,"w":69,"h":56},
		"31CFE343":{"x":837,"y":204,"w":86,"h":64},
		"F5326D81":{"x":270,"y":93,"w":86,"h":52},
		"8A64F2E":{"x":270,"y":147,"w":85,"h":52},
		"3300CE40":{"x":765,"y":0,"w":97,"h":64},
		"65B96209":{"x":204,"y":150,"w":53,"h":19},
		"A03067DD":{"x":931,"y":136,"w":91,"h":64},
		"EEFED8C0":{"x":450,"y":0,"w":106,"h":73},
		"9554EB68":{"x":450,"y":77,"w":94,"h":75},
		"24318CB5":{"x":959,"y":0,"w":60,"h":61},
		"B9584286":{"x":278,"y":325,"w":92,"h":54},
		"EDD74AE8":{"x":372,"y":154,"w":90,"h":55}
	}}